…
```r
step_days <- activity.df %>%
    group_by(date) %>%
    summarize(steps = sum(steps, na.rm=TRUE))

step_days
```

```
## # A tibble: 61 x 2
##          date steps
##        <fctr> <int>
##  1 2012-10-01     0
##  2 2012-10-02   126
##  3 2012-10-03 11352
##  4 2012-10-04 12116
##  5 2012-10-05 13294
##  6 2012-10-06 15420
##  7 2012-10-07 11015
##  8 2012-10-08     0
##  9 2012-10-09 12811
## 10 2012-10-10  9900
## # ... with 51 more rows
```
…
## What is the average daily activity pattern?

We start by creating a data frame with data by intervals


```r
step_intervals <- activity.df %>%
    group_by(interval) %>%
    summarize(steps = mean(steps, na.rm=TRUE))

step_intervals
```

```
## # A tibble: 288 x 2
##    interval     steps
##       <int>     <dbl>
##  1        0 1.7169811
##  2        5 0.3396226
##  3       10 0.1320755
##  4       15 0.1509434
##  5       20 0.0754717
##  6       25 2.0943396
##  7       30 0.5283019
##  8       35 0.8679245
##  9       40 0.0000000
## 10       45 1.4716981
## # ... with 278 more rows
```
…
